P,base-devel,"Important packages for installing AUR and suckless tools."
P,btop,"A nice-looking system monitor tool."
P,dosfstools,"Tools for managing FAT32 file system."
P,dunst,"A simple notification daemon."
P,engrampa,"An archive GUI from MATE project."
P,exfatprogs,"Tools for managing EXFAT file system."
P,firefox,"Furry browser."
P,ffmpegthumbnailer,"Shows video thumbnail in your file manager."
P,flameshot,"Fully-featured screenshot tool."
P,fzf,"Fuzzy Search for certain Neovim plugin."
P,git,"Should I even explain this?"
P,gvfs-mtp,"Mount phone's storage."
P,i3lock,"A screen locker."
P,imlib2,"Library for building sxiv."
P,kvantum,"QT5/6 theme engine."
P,lf,"Terminal file manager in case a GUI file manager isn't your thing."
P,lxappearance,"GUI app to change your themes, icons, and fonts."
P,lxsession-gtk3,"Provides lxpolkit which is a GUI frontend for Polkit."
P,man-db,"REAL MAN™ reads the fine manuals."
P,mpc,"Controls mpd from the terminal."
P,mpd,"The Music Player Daemon of our generation."
P,mpv,"The coolest media player on the block!"
P,mtpfs,"Tools for managing MTP file system."
P,ncmpcpp,"The frontend for mpd."
P,networkmanager,"Manages your network devices."
P,network-manager-applet,"Adds network manager GUI in the systray."
P,ntfs-3g,"Tools for managing NTFS file system"
P,noto-fonts-emoji,"Provides, guess what, emojis"
P,pamixer,"Easily manage volume in the terminal."
P,papirus-icon-theme,"A fancy flat icon pack."
P,pavucontrol,"GUI app for managing audio."
P,picom,"A window compositor that's *supposed* to prevent screen-tearing."
P,pipewire-pulse,"Full Pipewire replacement for Pulseaudio. Comes with Pipewire itself."
P,poppler,"Shows PDF Thumbnail in your file manager."
P,qt5ct,"Configure theme for QT5/6 apps."
P,redshift,"Color temperature adjustment to not torture your eyes during late working hour."
P,starship,"Beautiful prompt for any shell."
P,stow,"Symlink manager. Perfect for managing dotfiles."
P,thunar-archive-plugin,"Adds archiving context menu for Thunar, the file manager from XFCE. Comes with Thunar itself."
P,thunar-volman,"Manages external drives directly inside Thunar."
P,timeshift,"System backup tool. Works well with BTRFS as the root FS."
P,trash-cli,"Move item to trash instead of using rm."
P,tumbler,"Shows image thumbnail in your file manager."
P,ueberzug,"Shows images and PDF preview in terminal. Used by lf."
P,unzip,"No, it's not about your pants."
P,wireplumber,"Pipewire session manager or something like that."
P,webp-pixbuf-loader,"Shows webp thumbnail in your file manager."
P,xcape,"Bind that pesky CapsLock key into Escape key."
P,xclip,"Copy and paste text from the terminal."
P,xdotool,"Provides multiple functionality to manipulate window client and other stuff."
P,xorg-server,"I'm not switching to Wayland just yet."
P,xorg-xinit,"Starts the xorg session (dwm)."
P,xorg-xinput,"Makes the touchpad in your laptop usable."
P,xorg-xkill,"Kill your app whenever you need to force close it."
P,xorg-xprop,"Gets all information for a window you click on."
P,xorg-xrandr,"Set your monitor resolution and position. Important for multi-monitor setup."
P,xorg-xsetroot,"Set your root window title. dwm uses this for its statusbar."
P,xwallpaper,"Set your wallpaper."
P,vim,"We're not using nano."
P,yad,"Displays GUI dialogue."
P,zathura,"A lightweight PDF viewer."
P,zathura-pdf-mupdf,"Allows Zathura to actually open PDF, its main function."
P,zip,"Gotta zip, gotta zip, gotta zip, gotta spin our files!"
P,zsh,"The killer of Fish."
G,https://gitlab.com/fawzakin/sl.git,"Contains custom build of dmenu, dwm, st, sxiv, and tabbed."
